# Blender v2.79 (sub 0) OBJ File: 'EarthPlatform3.blend'
# www.blender.org
mtllib EarthPlatform3.mtl
o Cube
v 1.000000 -0.122357 -1.000000
v 1.000000 -0.122357 1.000000
v -1.000000 -0.122357 1.000000
v -1.000000 -0.122357 -1.000000
v 1.000000 0.122357 -1.000000
v 0.999999 0.122357 1.000001
v -1.000000 0.122357 1.000000
v -1.000000 0.122357 -1.000000
v 0.782307 -0.122357 -1.000000
v 0.782307 -0.122357 1.000000
v 0.782308 0.122357 -1.000000
v 0.782307 0.122357 1.000000
v 1.000000 -0.122357 -0.714286
v 1.000000 -0.122357 -0.428571
v 1.000000 -0.122357 -0.142857
v 1.000000 -0.122357 0.142857
v 1.000000 -0.122357 0.428571
v 1.000000 -0.122357 0.714286
v -1.000000 -0.122357 0.714285
v -1.000000 -0.122357 0.428571
v -1.000000 -0.122357 0.142857
v -1.000000 -0.122357 -0.142857
v -1.000000 -0.122357 -0.428572
v -1.000000 -0.122357 -0.714286
v 1.000000 0.122357 -0.714285
v 1.000000 0.122357 -0.428571
v 1.000000 0.122357 -0.142857
v 1.000000 0.122357 0.142858
v 1.000000 0.122357 0.428572
v 1.000000 0.122357 0.714286
v -1.000000 0.122357 0.714285
v -1.000000 0.122357 0.428571
v -1.000000 0.122357 0.142857
v -1.000000 0.122357 -0.142857
v -1.000000 0.122357 -0.428572
v -1.000000 0.122357 -0.714286
v 0.782308 0.161092 -0.714285
v 0.782308 0.348447 -0.428571
v 0.782307 0.168975 -0.142857
v 0.782307 0.139609 0.142858
v 0.782307 0.191084 0.428572
v 0.782307 0.398303 0.714286
v 0.782307 -0.122357 0.714286
v 0.782307 -0.122357 0.428571
v 0.782307 -0.122357 0.142857
v 0.782307 -0.122357 -0.142857
v 0.782307 -0.122357 -0.428571
v 0.782307 -0.122357 -0.714286
v 0.726994 -0.122357 -1.000000
v 0.726994 -0.122357 1.000000
v 0.726995 0.122357 -1.000000
v 0.726994 0.122357 1.000000
v 0.726995 0.122357 -0.714285
v 0.726995 0.122357 -0.428571
v 0.726994 0.122357 -0.142857
v 0.726994 0.122357 0.142858
v 0.726994 0.122357 0.428572
v 0.726994 0.122357 0.714286
v 0.726994 -0.122357 -0.714286
v 0.726994 -0.122357 -0.428571
v 0.726994 -0.122357 -0.142857
v 0.726994 -0.122357 0.142857
v 0.726994 -0.122357 0.428571
v 0.726994 -0.122357 0.714286
vn 0.0000 -1.0000 -0.0000
vn 0.0000 1.0000 0.0000
vn 1.0000 0.0000 0.0000
vn -0.0000 -0.0000 1.0000
vn -1.0000 -0.0000 -0.0000
vn 0.0000 0.0000 -1.0000
vn 0.4957 0.7821 0.3777
vn 0.0884 0.9938 -0.0674
vn 0.5004 0.8227 -0.2697
vn 0.5130 0.8190 0.2572
vn 0.1450 0.9881 0.0508
vn 0.1930 0.9772 -0.0880
vn 0.5970 0.7542 -0.2735
vn -0.9464 0.3037 -0.1101
vn -0.6121 0.7876 -0.0709
vn -0.4995 0.8652 0.0445
vn -0.9203 0.3733 0.1172
vn -0.9154 0.3824 -0.1254
vn -0.3298 0.9419 -0.0638
vn -0.9136 0.3662 0.1769
usemtl Material
s off
f 64//1 50//1 3//1 19//1
f 58//2 31//2 7//2 52//2
f 18//3 30//3 6//3 2//3
f 50//4 52//4 7//4 3//4
f 24//5 36//5 8//5 4//5
f 51//6 49//6 4//6 8//6
f 5//6 1//6 9//6 11//6
f 2//4 6//4 12//4 10//4
f 30//7 42//7 12//7 6//7
f 18//1 2//1 10//1 43//1
f 1//1 13//1 48//1 9//1
f 13//1 14//1 47//1 48//1
f 14//1 15//1 46//1 47//1
f 15//1 16//1 45//1 46//1
f 16//1 17//1 44//1 45//1
f 17//1 18//1 43//1 44//1
f 5//8 11//8 37//8 25//8
f 25//9 37//9 38//9 26//9
f 26//10 38//10 39//10 27//10
f 27//11 39//11 40//11 28//11
f 28//12 40//12 41//12 29//12
f 29//13 41//13 42//13 30//13
f 3//5 7//5 31//5 19//5
f 19//5 31//5 32//5 20//5
f 20//5 32//5 33//5 21//5
f 21//5 33//5 34//5 22//5
f 22//5 34//5 35//5 23//5
f 23//5 35//5 36//5 24//5
f 1//3 5//3 25//3 13//3
f 13//3 25//3 26//3 14//3
f 14//3 26//3 27//3 15//3
f 15//3 27//3 28//3 16//3
f 16//3 28//3 29//3 17//3
f 17//3 29//3 30//3 18//3
f 51//2 8//2 36//2 53//2
f 53//2 36//2 35//2 54//2
f 54//2 35//2 34//2 55//2
f 55//2 34//2 33//2 56//2
f 56//2 33//2 32//2 57//2
f 57//2 32//2 31//2 58//2
f 49//1 59//1 24//1 4//1
f 59//1 60//1 23//1 24//1
f 60//1 61//1 22//1 23//1
f 61//1 62//1 21//1 22//1
f 62//1 63//1 20//1 21//1
f 63//1 64//1 19//1 20//1
f 44//1 43//1 64//1 63//1
f 45//1 44//1 63//1 62//1
f 46//1 45//1 62//1 61//1
f 47//1 46//1 61//1 60//1
f 48//1 47//1 60//1 59//1
f 9//1 48//1 59//1 49//1
f 41//14 57//14 58//14 42//14
f 40//15 56//15 57//15 41//15
f 39//16 55//16 56//16 40//16
f 38//17 54//17 55//17 39//17
f 37//18 53//18 54//18 38//18
f 11//19 51//19 53//19 37//19
f 11//6 9//6 49//6 51//6
f 10//4 12//4 52//4 50//4
f 42//20 58//20 52//20 12//20
f 43//1 10//1 50//1 64//1
