# Blender v2.79 (sub 0) OBJ File: 'Ladder.blend'
# www.blender.org
mtllib Ladder.mtl
o Cube.002_Cube.003
v -0.462000 0.000332 0.055086
v -0.373410 0.000332 0.055086
v -0.373410 0.463124 0.055086
v -0.462000 0.000332 -0.050778
v -0.373410 0.000332 -0.050778
v -0.462000 0.463124 -0.050778
v 0.375564 0.000332 0.055086
v 0.464154 0.000332 0.055086
v 0.375564 0.463124 0.055086
v 0.464154 0.463124 0.055086
v 0.375564 0.000332 -0.050778
v 0.464154 0.000332 -0.050778
v 0.375564 0.463124 -0.050778
v 0.464154 0.463124 -0.050778
v 0.411498 0.260985 0.055086
v 0.411498 0.349575 0.055086
v -0.415806 0.260985 0.055086
v -0.415806 0.349575 0.055086
v 0.411498 0.260985 -0.050778
v 0.411498 0.349575 -0.050778
v -0.415806 0.260985 -0.050778
v -0.415806 0.349575 -0.050778
v -0.462000 0.463124 0.055086
v -0.462000 0.925915 0.055086
v -0.373410 0.925915 0.055086
v -0.373410 0.463124 -0.050778
v -0.462000 0.925915 -0.050778
v -0.373410 0.925915 -0.050778
v 0.375564 0.925915 0.055086
v 0.464154 0.925915 0.055086
v 0.375564 0.925915 -0.050778
v 0.464154 0.925915 -0.050778
v 0.411498 0.723776 0.055086
v 0.411498 0.812366 0.055086
v -0.415806 0.723776 0.055086
v -0.415806 0.812366 0.055086
v 0.411498 0.723776 -0.050778
v 0.411498 0.812366 -0.050778
v -0.415806 0.723776 -0.050778
v -0.415806 0.812366 -0.050778
v -0.462000 1.388707 0.055086
v -0.373410 1.388707 0.055086
v -0.373410 1.388707 -0.050778
v 0.375564 1.388707 0.055086
v 0.464154 1.388707 0.055086
v 0.375564 1.388707 -0.050778
v 0.411498 1.186568 0.055086
v 0.411498 1.275158 0.055086
v -0.415806 1.186568 0.055086
v -0.415806 1.275158 0.055086
v 0.411498 1.186568 -0.050778
v 0.411498 1.275158 -0.050778
v -0.415806 1.186568 -0.050778
v -0.415806 1.275158 -0.050778
v -0.462000 1.851498 0.055086
v -0.373410 1.851498 0.055086
v -0.462000 1.388707 -0.050778
v -0.462000 1.851498 -0.050778
v -0.373410 1.851498 -0.050778
v 0.375564 1.851498 0.055086
v 0.464154 1.851498 0.055086
v 0.464154 1.388707 -0.050778
v 0.375564 1.851498 -0.050778
v 0.464154 1.851498 -0.050778
v 0.411498 1.649359 0.055086
v 0.411498 1.737949 0.055086
v -0.415806 1.649359 0.055086
v -0.415806 1.737949 0.055086
v 0.411498 1.649359 -0.050778
v 0.411498 1.737949 -0.050778
v -0.415806 1.649359 -0.050778
v -0.415806 1.737949 -0.050778
v 0.411498 2.112150 0.055086
v 0.411498 2.200741 0.055086
v -0.415806 2.112150 0.055086
v -0.415806 2.200741 0.055086
v 0.411498 2.112150 -0.050778
v 0.411498 2.200741 -0.050778
v -0.415806 2.112150 -0.050778
v -0.415806 2.200741 -0.050778
v -0.462000 2.314289 0.055086
v -0.373410 2.314289 0.055086
v -0.462000 2.777081 0.055086
v -0.373410 2.777081 0.055086
v -0.462000 2.314289 -0.050778
v -0.373410 2.314289 -0.050778
v -0.462000 2.777081 -0.050778
v 0.375564 2.314289 0.055086
v 0.464154 2.314289 0.055086
v 0.375564 2.314289 -0.050778
v 0.464154 2.314289 -0.050778
v 0.464154 2.777081 -0.050778
v 0.411498 2.574942 0.055086
v 0.411498 2.663532 0.055086
v -0.415806 2.574942 0.055086
v -0.415806 2.663532 0.055086
v 0.411498 2.574942 -0.050778
v 0.411498 2.663532 -0.050778
v -0.415806 2.574942 -0.050778
v -0.415806 2.663532 -0.050778
v -0.462000 3.239872 0.055086
v -0.373410 3.239872 0.055086
v -0.373410 2.777081 -0.050778
v -0.462000 3.239872 -0.050778
v -0.373410 3.239872 -0.050778
v 0.375564 2.777081 0.055086
v 0.464154 2.777081 0.055086
v 0.464154 3.239872 0.055086
v 0.375564 2.777081 -0.050778
v 0.375564 3.239872 -0.050778
v 0.464154 3.239872 -0.050778
v 0.411498 3.037733 0.055086
v 0.411498 3.126323 0.055086
v -0.415806 3.037733 0.055086
v -0.415806 3.126323 0.055086
v 0.411498 3.037733 -0.050778
v 0.411498 3.126323 -0.050778
v -0.415806 3.037733 -0.050778
v -0.415806 3.126323 -0.050778
v -0.462000 3.702664 0.055086
v -0.373410 3.702664 -0.050778
v 0.375564 3.239872 0.055086
v 0.375564 3.702664 0.055086
v 0.464154 3.702664 0.055086
v 0.464154 3.702664 -0.050778
v 0.411498 3.500525 0.055086
v 0.411498 3.589115 0.055086
v -0.415806 3.500525 0.055086
v -0.415806 3.589115 0.055086
v 0.411498 3.500525 -0.050778
v 0.411498 3.589115 -0.050778
v -0.415806 3.500525 -0.050778
v -0.415806 3.589115 -0.050778
v -0.373410 3.702664 0.055086
v -0.462000 4.165455 0.055086
v -0.373410 4.165455 0.055086
v -0.462000 3.702664 -0.050778
v -0.373410 4.165455 -0.050778
v 0.375564 4.165455 0.055086
v 0.375564 3.702664 -0.050778
v 0.375564 4.165455 -0.050778
v 0.464154 4.165455 -0.050778
v 0.411498 3.963316 0.055086
v 0.411498 4.051906 0.055086
v -0.415806 3.963316 0.055086
v -0.415806 4.051906 0.055086
v 0.411498 3.963316 -0.050778
v 0.411498 4.051906 -0.050778
v -0.415806 3.963316 -0.050778
v -0.415806 4.051906 -0.050778
v -0.462000 4.628246 0.055086
v -0.373410 4.628246 0.055086
v -0.462000 4.165455 -0.050778
v -0.462000 4.628246 -0.050778
v -0.373410 4.628246 -0.050778
v 0.464154 4.165455 0.055086
v 0.375564 4.628246 0.055086
v 0.464154 4.628246 0.055086
v 0.375564 4.628246 -0.050778
v 0.464154 4.628246 -0.050778
v 0.411498 4.426107 0.055086
v 0.411498 4.514698 0.055086
v -0.415806 4.426107 0.055086
v -0.415806 4.514698 0.055086
v 0.411498 4.426107 -0.050778
v 0.411498 4.514698 -0.050778
v -0.415806 4.426107 -0.050778
v -0.415806 4.514698 -0.050778
vn -0.0000 -0.0000 1.0000
vn 0.0000 1.0000 0.0000
vn 0.0000 0.0000 -1.0000
vn -1.0000 0.0000 0.0000
vn 1.0000 0.0000 0.0000
vn 0.0000 -1.0000 0.0000
usemtl None
s off
f 1//1 2//1 3//1 23//1
f 23//2 3//2 26//2 6//2
f 6//3 26//3 5//3 4//3
f 23//4 6//4 4//4 1//4
f 26//5 3//5 2//5 5//5
f 7//1 8//1 10//1 9//1
f 9//2 10//2 14//2 13//2
f 13//3 14//3 12//3 11//3
f 9//4 13//4 11//4 7//4
f 14//5 10//5 8//5 12//5
f 15//1 16//1 18//1 17//1
f 21//3 22//3 20//3 19//3
f 17//6 21//6 19//6 15//6
f 22//2 18//2 16//2 20//2
f 23//1 3//1 25//1 24//1
f 24//2 25//2 28//2 27//2
f 27//3 28//3 26//3 6//3
f 24//4 27//4 6//4 23//4
f 28//5 25//5 3//5 26//5
f 9//1 10//1 30//1 29//1
f 29//2 30//2 32//2 31//2
f 31//3 32//3 14//3 13//3
f 29//4 31//4 13//4 9//4
f 32//5 30//5 10//5 14//5
f 33//1 34//1 36//1 35//1
f 39//3 40//3 38//3 37//3
f 35//6 39//6 37//6 33//6
f 40//2 36//2 34//2 38//2
f 24//1 25//1 42//1 41//1
f 41//2 42//2 43//2 57//2
f 57//3 43//3 28//3 27//3
f 41//4 57//4 27//4 24//4
f 43//5 42//5 25//5 28//5
f 29//1 30//1 45//1 44//1
f 44//2 45//2 62//2 46//2
f 46//3 62//3 32//3 31//3
f 44//4 46//4 31//4 29//4
f 62//5 45//5 30//5 32//5
f 47//1 48//1 50//1 49//1
f 53//3 54//3 52//3 51//3
f 49//6 53//6 51//6 47//6
f 54//2 50//2 48//2 52//2
f 41//1 42//1 56//1 55//1
f 55//2 56//2 59//2 58//2
f 58//3 59//3 43//3 57//3
f 55//4 58//4 57//4 41//4
f 59//5 56//5 42//5 43//5
f 44//1 45//1 61//1 60//1
f 60//2 61//2 64//2 63//2
f 63//3 64//3 62//3 46//3
f 60//4 63//4 46//4 44//4
f 64//5 61//5 45//5 62//5
f 65//1 66//1 68//1 67//1
f 71//3 72//3 70//3 69//3
f 67//6 71//6 69//6 65//6
f 72//2 68//2 66//2 70//2
f 55//1 56//1 82//1 81//1
f 81//2 82//2 86//2 85//2
f 85//3 86//3 59//3 58//3
f 81//4 85//4 58//4 55//4
f 86//5 82//5 56//5 59//5
f 60//1 61//1 89//1 88//1
f 88//2 89//2 91//2 90//2
f 90//3 91//3 64//3 63//3
f 88//4 90//4 63//4 60//4
f 91//5 89//5 61//5 64//5
f 73//1 74//1 76//1 75//1
f 79//3 80//3 78//3 77//3
f 75//6 79//6 77//6 73//6
f 80//2 76//2 74//2 78//2
f 81//1 82//1 84//1 83//1
f 83//2 84//2 103//2 87//2
f 87//3 103//3 86//3 85//3
f 83//4 87//4 85//4 81//4
f 103//5 84//5 82//5 86//5
f 88//1 89//1 107//1 106//1
f 106//2 107//2 92//2 109//2
f 109//3 92//3 91//3 90//3
f 106//4 109//4 90//4 88//4
f 92//5 107//5 89//5 91//5
f 93//1 94//1 96//1 95//1
f 99//3 100//3 98//3 97//3
f 95//6 99//6 97//6 93//6
f 100//2 96//2 94//2 98//2
f 83//1 84//1 102//1 101//1
f 101//2 102//2 105//2 104//2
f 104//3 105//3 103//3 87//3
f 101//4 104//4 87//4 83//4
f 105//5 102//5 84//5 103//5
f 106//1 107//1 108//1 122//1
f 122//2 108//2 111//2 110//2
f 110//3 111//3 92//3 109//3
f 122//4 110//4 109//4 106//4
f 111//5 108//5 107//5 92//5
f 112//1 113//1 115//1 114//1
f 118//3 119//3 117//3 116//3
f 114//6 118//6 116//6 112//6
f 119//2 115//2 113//2 117//2
f 101//1 102//1 134//1 120//1
f 120//2 134//2 121//2 137//2
f 137//3 121//3 105//3 104//3
f 120//4 137//4 104//4 101//4
f 121//5 134//5 102//5 105//5
f 122//1 108//1 124//1 123//1
f 123//2 124//2 125//2 140//2
f 140//3 125//3 111//3 110//3
f 123//4 140//4 110//4 122//4
f 125//5 124//5 108//5 111//5
f 126//1 127//1 129//1 128//1
f 132//3 133//3 131//3 130//3
f 128//6 132//6 130//6 126//6
f 133//2 129//2 127//2 131//2
f 120//1 134//1 136//1 135//1
f 135//2 136//2 138//2 153//2
f 153//3 138//3 121//3 137//3
f 135//4 153//4 137//4 120//4
f 138//5 136//5 134//5 121//5
f 123//1 124//1 156//1 139//1
f 139//2 156//2 142//2 141//2
f 141//3 142//3 125//3 140//3
f 139//4 141//4 140//4 123//4
f 142//5 156//5 124//5 125//5
f 143//1 144//1 146//1 145//1
f 149//3 150//3 148//3 147//3
f 145//6 149//6 147//6 143//6
f 150//2 146//2 144//2 148//2
f 135//1 136//1 152//1 151//1
f 151//2 152//2 155//2 154//2
f 154//3 155//3 138//3 153//3
f 151//4 154//4 153//4 135//4
f 155//5 152//5 136//5 138//5
f 139//1 156//1 158//1 157//1
f 157//2 158//2 160//2 159//2
f 159//3 160//3 142//3 141//3
f 157//4 159//4 141//4 139//4
f 160//5 158//5 156//5 142//5
f 161//1 162//1 164//1 163//1
f 167//3 168//3 166//3 165//3
f 163//6 167//6 165//6 161//6
f 168//2 164//2 162//2 166//2
