# Blender v2.79 (sub 0) OBJ File: 'Lift.blend'
# www.blender.org
mtllib Lift.mtl
o Cube
v 1.959379 -0.113107 -1.959379
v 1.959379 -0.113107 1.959379
v -1.959379 -0.113107 1.959378
v -1.959378 -0.113107 -1.959380
v 1.959380 0.113107 -1.959378
v 1.959378 0.113107 1.959380
v -1.959380 0.113107 1.959378
v -1.959379 0.113107 -1.959379
v 0.218529 -0.113107 -1.959379
v 0.218529 -0.113107 1.959379
v 0.218529 0.113107 -1.959378
v 0.218528 0.113107 1.959379
v 1.959379 -0.113107 1.640354
v -1.959379 -0.113107 1.640353
v 1.959378 0.113107 1.640355
v -1.959380 0.113107 1.640353
v 0.218528 0.113107 1.640354
v 0.218529 -0.113107 1.640354
v -1.708670 -0.113107 -1.959380
v -1.708671 -0.113107 1.959378
v -1.708671 0.113107 -1.959379
v -1.708672 0.113107 1.959378
v -1.708672 0.113107 1.640353
v -1.708671 -0.113107 1.640353
v -1.959378 -0.113107 -1.588508
v -1.959379 0.113107 -1.588508
v 0.218529 -0.113107 -1.588508
v 1.959379 -0.113107 -1.588508
v 1.959380 0.113107 -1.588507
v 0.218529 0.113107 -1.588507
v -1.708670 -0.113107 -1.588508
v -1.708671 0.113107 -1.588508
v 1.722250 -0.113107 -1.959379
v 1.722250 -0.113107 1.959379
v 1.722251 0.113107 -1.959378
v 1.722249 0.113107 1.959380
v 1.722250 -0.113107 1.640354
v 1.722249 0.113107 1.640355
v 1.722251 0.113107 -1.588507
v 1.722250 -0.113107 -1.588508
v 1.959378 1.360224 1.640355
v 1.959378 1.360224 1.959380
v -1.708671 1.360224 -1.959379
v -1.959379 1.360224 -1.959379
v -1.708672 1.360224 1.959378
v -1.959380 1.360224 1.959378
v -1.959379 1.360224 -1.588508
v 0.218528 1.360224 1.640354
v 0.218528 1.360224 1.959379
v 1.959380 1.360224 -1.588507
v -1.959380 1.360224 1.640353
v 1.722249 1.360224 1.640355
v -1.708672 1.360224 1.640353
v 0.218529 1.360224 -1.959378
v -1.708671 1.360224 -1.588508
v 1.959380 1.360224 -1.959378
v 0.218529 1.360224 -1.588507
v 1.722251 1.360224 -1.588507
v 1.722251 1.360224 -1.959378
v 1.722249 1.360224 1.959380
v 1.959378 2.946209 1.640355
v 1.959378 2.946209 1.959380
v -1.959379 2.946209 -1.959379
v -1.708672 2.946209 1.959378
v -1.959380 2.946209 1.959378
v -1.959380 2.946209 1.640353
v -1.708672 2.946209 1.640353
v 1.959380 2.946209 -1.959378
v -1.708671 2.946209 -1.588508
v 1.722251 2.946209 -1.588507
v 1.722251 2.946209 -1.959378
v 1.722249 2.946209 1.959380
v 1.959378 3.128750 1.640355
v 1.959378 3.128750 1.959380
v -1.959379 3.128750 -1.959379
v -1.708672 3.128750 1.959378
v -1.959380 3.128750 1.959378
v -1.959379 3.128750 -1.588508
v -1.959380 3.128750 1.640353
v 1.959380 3.128750 -1.959378
v -1.708671 3.128750 -1.588508
v 1.722251 3.128750 -1.959378
v 1.722249 3.128750 1.959380
v 1.959378 2.946209 -1.588507
v 1.722249 3.128750 -1.588507
v 1.959378 3.128750 -1.588507
v -1.708671 2.946209 -1.959380
v -1.708671 3.128750 -1.959380
v -1.959378 2.946209 -1.588508
v 1.722249 3.128750 1.640355
v 1.722249 2.946209 1.640355
v -1.708673 3.128750 1.640353
v 1.250537 3.382188 1.196424
v -1.236961 3.382188 1.196422
v 1.250537 3.382188 -1.144576
v -1.236959 3.382188 -1.144577
vt 0.625046 0.566700
vt 0.603874 0.566700
vt 0.603874 0.550062
vt 0.625046 0.550062
vt 0.149378 0.531935
vt 0.363659 0.531935
vt 0.363659 0.694102
vt 0.149378 0.694102
vt 0.319212 0.000321
vt 0.319202 0.029736
vt 0.298030 0.029729
vt 0.298040 0.000313
vt 0.766041 0.421548
vt 0.736626 0.421548
vt 0.736626 0.404910
vt 0.766041 0.404910
vt 0.766041 0.169456
vt 0.736626 0.169456
vt 0.736626 0.144844
vt 0.766041 0.144844
vt 0.736626 0.128206
vt 0.766041 0.128206
vt 0.893356 0.794391
vt 0.863941 0.794391
vt 0.863941 0.694598
vt 0.893356 0.694598
vt 0.603874 0.794391
vt 0.574459 0.794391
vt 0.574459 0.694597
vt 0.603874 0.694598
vt 0.304997 0.719330
vt 0.304997 0.819124
vt 0.283825 0.819124
vt 0.283825 0.719330
vt 0.625046 0.794391
vt 0.625046 0.694598
vt 0.839328 0.794391
vt 0.839328 0.694598
vt 0.519279 0.719330
vt 0.519279 0.819124
vt 0.736626 0.383738
vt 0.766041 0.383738
vt 0.533494 0.000394
vt 0.533484 0.029810
vt 0.574459 0.144844
vt 0.574459 0.128205
vt 0.839329 0.566700
vt 0.839329 0.550062
vt 0.519279 0.947022
vt 0.304997 0.947021
vt 0.736626 0.000308
vt 0.766041 0.000308
vt 0.766041 0.549446
vt 0.736626 0.549446
vt 0.574459 0.404910
vt 0.574459 0.383738
vt 0.574459 0.169456
vt 0.863941 0.566700
vt 0.863941 0.550062
vt 0.319146 0.191902
vt 0.297974 0.191895
vt 0.558107 0.000403
vt 0.558096 0.029818
vt 0.543892 0.719330
vt 0.543892 0.819124
vt 0.863941 0.810128
vt 0.839328 0.810128
vt 0.021480 0.531935
vt 0.021480 0.694102
vt 0.491557 0.531935
vt 0.491557 0.694102
vt 0.625046 0.810128
vt 0.603874 0.810128
vt 0.533428 0.191976
vt 0.282293 0.029723
vt 0.282303 0.000308
vt 0.573843 0.000408
vt 0.573833 0.029824
vt 0.807006 0.207154
vt 0.822743 0.207154
vt 0.822743 0.413385
vt 0.807006 0.413385
vt 0.363659 0.710740
vt 0.149378 0.710740
vt 0.149378 0.715274
vt 0.021480 0.715274
vt 0.491557 0.718714
vt 0.363659 0.718714
vt 0.864610 0.207154
vt 0.885782 0.207154
vt 0.885782 0.413385
vt 0.864610 0.413385
vt 0.902420 0.207154
vt 0.923592 0.207154
vt 0.923592 0.413385
vt 0.902420 0.413385
vt 0.533422 0.207713
vt 0.319141 0.207639
vt 0.766657 0.207154
vt 0.782394 0.207154
vt 0.782394 0.413385
vt 0.766657 0.413385
vt 0.557979 0.369888
vt 0.533366 0.369880
vt 0.558035 0.207722
vt 0.574459 0.421548
vt 0.573777 0.191990
vt 0.558041 0.191985
vt 0.000308 0.531935
vt 0.000308 0.694102
vt 0.319085 0.369806
vt 0.282237 0.191890
vt 0.574459 0.000308
vt 0.516170 0.531935
vt 0.516170 0.694102
vt 0.574459 0.549446
vt 0.297913 0.369799
vt 0.297968 0.207632
vt 0.327145 0.410878
vt 0.305973 0.410878
vt 0.305973 0.387142
vt 0.327145 0.387142
vt 0.725799 0.971373
vt 0.741535 0.971373
vt 0.741536 0.947637
vt 0.725799 0.947637
vt 0.306850 0.492858
vt 0.282237 0.492858
vt 0.282237 0.469122
vt 0.306850 0.469122
vt 0.378218 0.452484
vt 0.394856 0.452484
vt 0.394856 0.476220
vt 0.378218 0.476220
vt 0.907855 0.000308
vt 0.923592 0.000308
vt 0.923592 0.206539
vt 0.907855 0.206539
vt 0.870946 0.000308
vt 0.886683 0.000308
vt 0.886683 0.206539
vt 0.870946 0.206539
vt 0.847356 0.207154
vt 0.847356 0.413385
vt 0.791269 0.000308
vt 0.807908 0.000308
vt 0.807908 0.206539
vt 0.791270 0.206539
vt 0.766657 0.000308
vt 0.766657 0.206539
vt 0.849774 0.000308
vt 0.849774 0.206539
vt 0.832520 0.000308
vt 0.832520 0.206539
vt 0.847972 0.207154
vt 0.847972 0.413385
vt 0.849158 0.000308
vt 0.849158 0.206539
vt 0.327145 0.370504
vt 0.305973 0.370504
vt 0.306850 0.452484
vt 0.282237 0.452484
vt 0.257885 0.268689
vt 0.242148 0.268689
vt 0.242148 0.244076
vt 0.257885 0.244076
vt 0.243736 0.785410
vt 0.227999 0.785410
vt 0.227999 0.764238
vt 0.243736 0.764238
vt 0.257885 0.292425
vt 0.242148 0.292425
vt 0.243736 0.999692
vt 0.227999 0.999692
vt 0.227999 0.740502
vt 0.243736 0.740502
vt 0.541427 0.387142
vt 0.541427 0.410878
vt 0.014457 0.244076
vt 0.045762 0.199871
vt 0.210843 0.199872
vt 0.356430 0.452484
vt 0.377602 0.452484
vt 0.377602 0.476220
vt 0.356430 0.476220
vt 0.267472 0.764238
vt 0.267472 0.785410
vt 0.227999 0.719330
vt 0.000308 0.740502
vt 0.000308 0.719330
vt 0.281621 0.244076
vt 0.281621 0.268689
vt 0.330586 0.452484
vt 0.330586 0.469122
vt 0.331202 0.452484
vt 0.355814 0.452484
vt 0.355814 0.476220
vt 0.331202 0.476220
vt 0.282237 0.387142
vt 0.282237 0.370504
vt 0.511517 0.971373
vt 0.511517 0.947637
vt 0.283209 0.785410
vt 0.283210 0.999692
vt 0.267473 0.999692
vt 0.014457 0.268688
vt 0.014457 0.292425
vt 0.242148 0.317038
vt 0.014457 0.317038
vt 0.283825 0.971373
vt 0.283825 0.947637
vt 0.000308 0.764239
vt 0.000308 0.785410
vt 0.327145 0.427516
vt 0.541427 0.427516
vt 0.282237 0.451868
vt 0.282237 0.428132
vt 0.496519 0.428132
vt 0.496519 0.451868
vt 0.541427 0.370504
vt 0.242148 0.531320
vt 0.014457 0.531319
vt 0.045762 0.044512
vt 0.210843 0.044512
vt 0.014457 0.000308
vt 0.242148 0.000308
vt 0.000308 0.229333
vt 0.000308 0.015051
vt 0.256297 0.015051
vt 0.256297 0.229333
vn 0.0000 -1.0000 0.0000
vn 1.0000 0.0000 0.0000
vn -0.0000 0.0000 1.0000
vn -1.0000 -0.0000 -0.0000
vn 0.0000 0.0000 -1.0000
vn 0.0000 1.0000 -0.0000
vn 0.0000 0.8684 -0.4958
vn -0.0000 0.8684 0.4958
vn -0.4733 0.8809 -0.0000
vn 0.4733 0.8809 0.0000
usemtl Material
s off
f 24/1/1 20/2/1 3/3/1 14/4/1
f 23/5/2 32/6/2 55/7/2 53/8/2
f 13/9/2 15/10/2 6/11/2 2/12/2
f 20/13/3 22/14/3 7/15/3 3/16/3
f 25/17/4 26/18/4 8/19/4 4/20/4
f 21/21/5 19/22/5 4/20/5 8/19/5
f 35/23/5 33/24/5 9/25/5 11/26/5
f 34/27/3 36/28/3 12/29/3 10/30/3
f 38/31/6 17/32/6 12/33/6 36/34/6
f 37/35/1 34/27/1 10/30/1 18/36/1
f 40/37/1 37/35/1 18/36/1 27/38/1
f 39/39/6 30/40/6 17/32/6 38/31/6
f 3/16/4 7/15/4 16/41/4 14/42/4
f 28/43/2 29/44/2 15/10/2 13/9/2
f 21/21/5 8/19/5 44/45/5 43/46/5
f 31/47/1 24/1/1 14/4/1 25/48/1
f 27/38/1 18/36/1 24/1/1 31/47/1
f 30/40/6 32/49/6 23/50/6 17/32/6
f 11/51/5 9/52/5 19/22/5 21/21/5
f 10/53/3 12/54/3 22/14/3 20/13/3
f 16/41/4 7/15/4 46/55/4 51/56/4
f 18/36/1 10/30/1 20/2/1 24/1/1
f 26/18/4 16/41/4 51/56/4 47/57/4
f 9/25/1 27/38/1 31/47/1 19/58/1
f 19/58/1 31/47/1 25/48/1 4/59/1
f 6/11/2 15/10/2 41/60/2 42/61/2
f 1/62/2 5/63/2 29/44/2 28/43/2
f 35/64/6 11/65/6 30/40/6 39/39/6
f 33/24/1 40/37/1 27/38/1 9/25/1
f 14/42/4 16/41/4 26/18/4 25/17/4
f 1/66/1 28/67/1 40/37/1 33/24/1
f 17/68/5 23/5/5 53/8/5 48/69/5
f 32/6/3 30/70/3 57/71/3 55/7/3
f 28/67/1 13/72/1 37/35/1 40/37/1
f 13/72/1 2/73/1 34/27/1 37/35/1
f 15/10/2 29/44/2 50/74/2 41/60/2
f 2/12/3 6/11/3 36/75/3 34/76/3
f 5/63/5 1/62/5 33/77/5 35/78/5
f 56/79/5 59/80/5 71/81/5 68/82/5
f 55/7/6 47/83/6 51/84/6 53/8/6
f 48/69/6 53/8/6 45/85/6 49/86/6
f 54/87/6 43/88/6 55/7/6 57/71/6
f 51/89/4 46/90/4 65/91/4 66/92/4
f 45/93/2 53/94/2 67/95/2 64/96/2
f 50/74/6 58/97/6 52/98/6 41/60/6
f 58/99/3 50/100/3 84/101/3 70/102/3
f 35/103/4 39/104/4 58/97/4 59/105/4
f 7/15/3 22/14/3 45/106/3 46/55/3
f 5/63/5 35/78/5 59/107/5 56/108/5
f 12/109/2 17/68/2 48/69/2 49/110/2
f 39/104/4 38/111/4 52/98/4 58/97/4
f 8/19/4 26/18/4 47/57/4 44/45/4
f 29/44/2 5/63/2 56/108/2 50/74/2
f 36/75/3 6/11/3 42/61/3 60/112/3
f 11/51/5 21/21/5 43/46/5 54/113/5
f 30/70/2 11/114/2 54/115/2 57/71/2
f 22/14/3 12/54/3 49/116/3 45/106/3
f 38/111/4 36/117/4 60/118/4 52/98/4
f 66/119/4 65/120/4 77/121/4 79/122/4
f 70/123/3 84/124/3 86/125/3 85/126/3
f 63/127/4 89/128/4 78/129/4 75/130/4
f 89/131/3 69/132/3 81/133/3 78/134/3
f 41/135/5 52/136/5 91/137/5 61/138/5
f 60/139/3 42/140/3 62/141/3 72/142/3
f 42/140/2 41/135/2 61/138/2 62/141/2
f 50/100/2 56/79/2 68/82/2 84/101/2
f 59/80/4 58/143/4 70/144/4 71/81/4
f 43/145/5 44/146/5 63/147/5 87/148/5
f 46/90/3 45/93/3 64/96/3 65/91/3
f 55/149/2 43/145/2 87/148/2 69/150/2
f 52/151/4 60/139/4 72/142/4 91/152/4
f 44/146/4 47/153/4 89/154/4 63/147/4
f 53/155/5 51/89/5 66/92/5 67/156/5
f 47/153/3 55/157/3 69/158/3 89/154/3
f 92/159/6 79/122/6 77/121/6 76/160/6
f 88/161/6 75/130/6 78/129/6 81/162/6
f 80/163/6 82/164/6 85/165/6 86/166/6
f 73/167/6 90/168/6 83/169/6 74/170/6
f 68/171/5 71/172/5 82/164/5 80/163/5
f 90/168/6 73/167/6 86/173/6 85/174/6
f 72/175/3 62/176/3 74/170/3 83/169/3
f 66/119/4 79/122/4 78/177/4 89/178/4
f 85/165/7 81/179/7 96/180/7 95/181/7
f 64/182/2 67/183/2 92/184/2 76/185/2
f 62/186/2 61/187/2 73/167/2 74/170/2
f 91/188/1 72/175/1 64/189/1 67/190/1
f 84/191/2 68/192/2 80/163/2 86/166/2
f 87/193/5 63/194/5 75/130/5 88/161/5
f 69/195/2 87/196/2 88/197/2 81/198/2
f 65/199/3 64/200/3 76/160/3 77/121/3
f 91/201/4 90/202/4 85/126/4 70/123/4
f 61/187/1 91/203/1 70/204/1 84/205/1
f 73/167/2 61/187/2 84/205/2 86/173/2
f 85/165/6 82/164/6 88/206/6 81/179/6
f 82/164/5 71/172/5 87/207/5 88/206/5
f 71/172/1 70/208/1 69/209/1 87/207/1
f 90/202/5 91/201/5 67/210/5 92/211/5
f 72/175/3 83/169/3 76/212/3 64/189/3
f 83/169/6 90/168/6 92/213/6 76/212/6
f 67/214/1 66/119/1 89/178/1 69/215/1
f 92/216/2 67/217/2 69/218/2 81/219/2
f 79/122/6 92/159/6 81/220/6 78/177/6
f 69/209/1 70/208/1 91/221/1 67/222/1
f 95/181/6 96/180/6 94/223/6 93/224/6
f 92/225/8 90/226/8 93/224/8 94/223/8
f 81/227/9 92/228/9 94/223/9 96/180/9
f 90/229/10 85/230/10 95/181/10 93/224/10
